…
``` r
# top tweets per topic
ft = findThoughts(stm_model, texts=meta$text, topics=1:stm_model$settings$dim$K,
  thresh=0.25, meta=meta)
ft_df = lapply(names(ft$index),
  function(x) data.frame(topic = rep(x, length(ft$index[x])),
    index = ft$index[x][[1]])) %>% data.table::rbindlist()
ft_df[, c("doc_id", "raw_text", "text", "economy_type")] = meta[
  ft_df$index, c("doc_id", "raw_text", "text", "economy_type")]
ft_df[,c("doc_id", "raw_text", "text", "economy_type")] %>%
  mutate(raw_text=substr(raw_text,1,70)) %>% as_tibble()
```

    ## # A tibble: 45 × 4
    ##       doc_id raw_text                    text                       economy_type
    ##        <dbl> <chr>                       <chr>                      <chr>       
    ##  1 7.52e-321 "ANNUAL REPORT 2019 INTROD… annual report introductio… Advanced    
    ##  2 1.41e-321 "BL. me La ’ te Take. iy )… take ser cae owe would ce… Advanced    
    ##  3 1.72e-321 "i es ; {, _— 2 —— a 4 es,… deliver wae see sustainab… Advanced    
    ##  4 1.69e-321 "A ad ry Oe he i, A * eg \… poe have bee responsible … Advanced    
    ##  5 7.85e-322 "The J.J. Ugland Companies… company annual corporate … Advanced    
    ##  6 2.05e-321 "SYA @@] eA eee mee uel eu… performance data summary … Developing  
    ##  7 1.20e-320 "ZenS. TECHNOLOGIES Januar… technology january ant se… Developing  
    ##  8 1.09e-320 "Mapping of UNGC Principle… mapping ungc principles p… Developing  
    ##  9 1.08e-320 "[A] Pal SOLUTION Date 12.… pal solution date united … Advanced    
    ## 10 9.49e-321 "a —,... Eizigi a iil ase … ase see sae sustainabilit… Advanced    
    ## # … with 35 more rows
…
