…
``` r
# top docs per topic
ft = findThoughts(stm_model, texts=out$meta$reconstructed_chars,
  topics=1:stm_model$settings$dim$K, n=3, meta=out$meta)
ft_df = lapply(names(ft$index),
  function(x) data.frame(topic = rep(x, length(ft$index[x])),
    index = ft$index[x][[1]])) %>% data.table::rbindlist() %>%
    as.data.frame()
mirror_cols = c("doc_id", "participant", "reconstructed_chars", "output_chars", "economy_type")
ft_df[, mirror_cols] = out$meta[ft_df$index, mirror_cols]
ft_df[, c("doc_id", "participant", "reconstructed_chars")] %>%
  mutate(reconstructed_chars=substr(reconstructed_chars,1,200)) %>% as_tibble()
```

    ## # A tibble: 33 × 3
    ##    doc_id participant                            reconstructed_chars            
    ##     <int> <chr>                                  <chr>                          
    ##  1   1926 Rexel Group                            "rent fee share capital regist…
    ##  2   1974 SODEXO IBERIA S.A                      "woe version registration docu…
    ##  3    325 Ascom Holding AG                       "annual report global solution…
    ##  4   2274 Tokyo Century Corporation              "century report commitment run…
    ##  5   1329 Komatsu Ltd.                           "tee eat day wee enhance quali…
    ##  6   2141 Sumitomo Riko Company Limited          "com eye global excellent manu…
    ##  7   2156 Svenska Handelsbanken AB (publ)        "found bank branch network way…
    ##  8   1580 Movestic Livforsakring AB              "sustainability digital develo…
    ##  9   2053 SharePower Responsible Investing, Inc. "responsible invest die lie pe…
    ## 10   2355 Viatris                                "global social responsibility …
    ## # … with 23 more rows
…
